<?xml version="1.0" encoding="UTF-8" standalone="no"?>
<svg
   xmlns:dc="http://purl.org/dc/elements/1.1/"
   xmlns:cc="http://creativecommons.org/ns#"
   xmlns:rdf="http://www.w3.org/1999/02/22-rdf-syntax-ns#"
   xmlns:svg="http://www.w3.org/2000/svg"
   xmlns="http://www.w3.org/2000/svg"
   xmlns:sodipodi="http://sodipodi.sourceforge.net/DTD/sodipodi-0.dtd"
   xmlns:inkscape="http://www.inkscape.org/namespaces/inkscape"
   version="1.0"
   width="254.96692"
   height="314.64566"
   id="svg2985"
   inkscape:version="0.92.1 r15371"
   sodipodi:docname="titlepage-fds.svg">
  <metadata
     id="metadata3095">
    <rdf:RDF>
      <cc:Work
         rdf:about="">
        <dc:format>image/svg+xml</dc:format>
        <dc:type
           rdf:resource="http://purl.org/dc/dcmitype/StillImage" />
        <dc:title></dc:title>
      </cc:Work>
    </rdf:RDF>
  </metadata>
  <sodipodi:namedview
     pagecolor="#ffffff"
     bordercolor="#666666"
     borderopacity="1"
     objecttolerance="10"
     gridtolerance="10"
     guidetolerance="10"
     inkscape:pageopacity="0"
     inkscape:pageshadow="2"
     inkscape:window-width="1920"
     inkscape:window-height="1025"
     id="namedview3093"
     showgrid="false"
     inkscape:zoom="1.4780647"
     inkscape:cx="34.199113"
     inkscape:cy="119.28017"
     inkscape:window-x="0"
     inkscape:window-y="27"
     inkscape:window-maximized="1"
     inkscape:current-layer="g2989"
     fit-margin-top="0"
     fit-margin-left="0"
     fit-margin-right="0"
     fit-margin-bottom="0" />
  <defs
     id="defs2987" />
  <g
     id="g2989">
    <path
       style="fill:#002c50;fill-opacity:1;fill-rule:nonzero;stroke:none;stroke-width:1.06666672"
       d="m 181.6431,203.31977 v 0 0 0 5.33298 l -0.99987,4.66635 -0.99987,4.99966 -1.66644,4.33305 -1.99975,4.33304 -2.33303,4.33305 -2.66632,3.99973 -3.3329,3.33311 -3.3329,3.33311 -3.6662,2.9998 -3.99947,2.66649 -3.99948,2.33318 -4.66607,1.99987 -4.66606,1.33324 -4.66606,1.33324 -4.99935,0.33332 h 80.65621 v 0 l -5.99923,-0.66663 -5.33264,-0.99993 -4.99936,-1.99986 -4.33276,-2.33319 -1.99975,-1.33324 -1.99973,-1.66656 -1.66645,-1.66655 -1.66646,-1.99987 -1.66644,-1.99986 -1.33316,-1.99987 -1.33317,-2.33317 -0.99987,-2.6665 v 0 l 1.66646,-2.9998 1.66645,-2.99979 1.33315,-3.33311 0.99987,-3.33311 h 3.6662 v 0 l 0.33329,2.99979 0.33329,2.66649 0.99986,2.6665 0.99988,2.33317 1.33316,2.33317 1.33316,1.99987 1.66645,1.66655 1.66645,1.66656 1.99974,1.33325 2.33304,1.33324 2.33302,0.99993 2.33303,0.99994 2.66632,0.66662 2.66632,0.33331 2.99962,0.33331 2.66631,0.33331 v 0 l 4.66606,-0.33331 4.33278,-0.66662 4.66606,-1.33324 3.99948,-1.99988 1.99974,-0.99992 1.66646,-1.66656 1.66644,-1.33325 1.33316,-1.66655 0.99987,-1.99987 0.99987,-1.99986 0.3333,-2.33317 0.33329,-2.33319 v 0 l -0.33329,-1.99986 -0.3333,-1.99987 -0.33329,-1.66655 -0.99987,-1.66656 -0.99987,-1.33325 -0.99987,-1.33324 -2.66632,-2.33318 -3.3329,-1.66655 -3.66619,-1.66656 -3.99948,-1.33325 -3.99949,-0.99992 -15.33133,-3.33311 v 0 l -5.66593,-1.66656 -5.33266,-1.99987 -4.66605,-2.33318 -2.33303,-1.33325 -1.66645,-1.33323 v -35.33098 0 l 2.66631,-2.33318 3.33291,-1.99986 3.66619,-1.66656 3.66619,-1.33324 3.99948,-0.99994 3.99948,-0.66662 3.99949,-0.66663 h 3.99947 v 0 h 3.6662 l 3.3329,0.33332 3.3329,0.66662 3.3329,0.99994 2.99962,0.99992 2.9996,1.33325 2.66633,1.66656 2.66631,1.66655 2.33304,1.99987 1.99974,2.33317 1.66644,2.6665 1.66646,2.9998 1.33316,2.99979 0.99987,3.33311 0.33329,3.66643 0.33329,3.66642 h -11.66516 v 0 l -0.33329,-2.66649 -0.66657,-2.33317 -0.66658,-2.33319 -0.66658,-1.99986 -1.33317,-1.99987 -1.33316,-1.66655 -1.33316,-1.66656 -1.66645,-1.33325 -1.99974,-1.33323 -1.66645,-0.99994 -4.33277,-1.66656 -4.66606,-0.99993 -4.99936,-0.33331 v 0 l -4.33277,0.33331 -3.99947,0.66662 -3.6662,0.99993 -3.66619,1.66656 -1.66645,0.99994 -1.33316,1.33324 -1.33316,1.33325 -0.99987,1.66654 -0.99987,1.66656 -0.66658,1.99987 -0.33329,1.99987 -0.33329,2.33317 v 0 l 0.33329,1.66656 0.33329,1.99986 0.66658,1.66656 0.66658,1.33325 0.99987,1.33324 1.33315,1.33325 2.66633,1.99986 3.33291,1.66656 3.33289,1.33325 6.66581,1.99986 15.99792,3.66642 v 0 l 3.66619,0.66662 3.66619,0.99994 3.6662,1.33324 3.33289,1.99987 3.33291,1.99986 2.9996,2.33318 2.33304,2.66649 1.99973,3.33311 V 0 H 181.6431 Z"
       id="path2991"
       inkscape:connector-curvature="0" />
    <path
       style="fill:#002c50;fill-opacity:1;fill-rule:nonzero;stroke:none;stroke-width:1.06666672"
       d="m 129.98314,162.65581 v 0 l -4.33277,0.33331 -3.99948,0.33331 -3.99949,1.33325 -3.66618,1.33325 -3.33291,1.66655 -3.66619,1.99987 -2.99961,2.33317 -2.99961,2.66649 -2.666321,2.99981 -2.33303,2.99979 -1.999741,3.33311 -1.66645,3.66642 -1.333161,3.66643 -0.99987,3.99973 -0.66658,3.99973 -0.33329,3.99974 v 0 l 0.33329,4.33304 0.66658,3.99973 0.99987,3.99974 1.333161,3.66642 1.66645,3.66642 1.999741,3.33311 2.33303,2.9998 2.666321,2.9998 2.99961,2.66649 2.99961,2.33317 3.66619,1.99988 3.33291,1.66654 3.66618,1.33325 3.99949,0.99994 3.99948,0.66662 4.33277,0.33331 v 0 l 3.99948,-0.33331 3.99948,-0.66662 3.99948,-0.99994 3.6662,-1.33325 3.66618,-1.66654 3.33291,-1.99988 3.3329,-2.33317 2.66632,-2.66649 2.66632,-2.9998 2.33303,-2.9998 1.99974,-3.33311 1.99974,-3.66642 1.33316,-3.66642 0.99987,-3.99974 0.66658,-3.99973 v -4.33304 0 -3.99974 l -0.66658,-3.99973 -0.99987,-3.99973 -1.33316,-3.66643 -1.99974,-3.66642 -1.99974,-3.33311 -2.33303,-2.99979 -2.66632,-2.99981 -2.66632,-2.66649 -3.3329,-2.33317 -3.33291,-1.99987 -3.66618,-1.66655 -3.6662,-1.33325 -3.99948,-1.33325 -3.99948,-0.33331 z"
       id="path2993"
       inkscape:connector-curvature="0" />
    <path
       style="fill:#002c50;fill-opacity:1;fill-rule:nonzero;stroke:none;stroke-width:1.06666672"
       d="M 15.331345,191.98719 H 0 v 62.9958 h 15.331345 z"
       id="path2995"
       inkscape:connector-curvature="0" />
    <path
       style="fill:#002c50;fill-opacity:1;fill-rule:nonzero;stroke:none;stroke-width:1.06666672"
       d="m 222.63779,254.98299 h 32.32913 v -16.99887 0 l -0.99986,1.99987 -1.33316,1.99986 -1.66645,1.66656 -1.66646,1.66655 -3.66618,2.6665 -3.99948,2.33317 -4.33278,1.99987 -4.66606,1.33324 -4.99935,0.99993 z"
       id="path2997"
       inkscape:connector-curvature="0" />
    <path
       style="fill:#002c50;fill-opacity:1;fill-rule:nonzero;stroke:none;stroke-width:1.06666672"
       d="M 74.990273,0 H 0 v 12.999133 0 l 4.9993515,3.999733 5.3326415,3.666421 5.332642,3.666423 5.332642,3.33311 5.332641,2.999801 5.332642,2.999799 5.665932,2.666489 5.332641,2.333177 v 0 l 4.666062,-3.33311 4.66606,-3.666422 4.332772,-4.333045 4.332771,-4.666355 3.999481,-4.999666 3.666191,-5.666289 3.666191,-5.6662883 z"
       id="path2999"
       inkscape:connector-curvature="0" />
    <path
       style="fill:#002c50;fill-opacity:1;fill-rule:nonzero;stroke:none;stroke-width:1.06666672"
       d="m 45.327454,75.328307 v 0 l 5.999221,-1.999866 5.665932,-2.66649 5.332642,-2.666489 5.332641,-2.999799 4.999352,-2.9998 4.666061,-3.333111 4.332772,-3.33311 4.332771,-3.666423 v 0 L 80.989494,51.329908 75.656853,50.663286 70.324211,49.663353 64.99157,48.330109 59.325638,46.996864 53.992996,45.330308 48.327065,43.330442 42.994423,40.997264 v 0 l -3.332901,1.999867 -3.666191,1.666555 -3.332901,1.333244 -3.332901,1.333245 -3.666191,0.666622 -3.666191,0.666623 -3.666191,0.333311 -3.666191,0.333311 v 0 h -0.66658 v 0 L 10.331993,48.996731 6.665802,48.66342 3.332901,47.996797 0,46.996864 v 36.66422 0 h 1.3331604 v 0 l 5.3326416,-0.333311 5.332642,-0.333311 5.665931,-0.666622 5.665932,-0.999934 5.332641,-0.999933 5.665932,-1.333244 5.665932,-1.666556 z"
       id="path3001"
       inkscape:connector-curvature="0" />
    <path
       style="fill:#002c50;fill-opacity:1;fill-rule:nonzero;stroke:none;stroke-width:1.06666672"
       d="m 14.664765,47.330175 v 0 l 3.666191,-0.333311 2.99961,-0.333311 3.332902,-0.333311 3.3329,-0.999934 3.332901,-0.999933 2.999611,-1.333244 3.332901,-1.333244 2.999611,-1.666556 v 0 L 30.329399,34.997665 19.997406,29.331376 9.6654129,22.665154 0,15.33231 v 29.664687 0 l 3.332901,0.999933 3.6661912,0.666623 3.3329008,0.333311 3.666192,0.333311 v 0 z"
       id="path3003"
       inkscape:connector-curvature="0" />
    <path
       style="fill:#002c50;fill-opacity:1;fill-rule:nonzero;stroke:none;stroke-width:1.06666672"
       d="M 114.31851,0 H 77.323303 v 0 l -3.66619,7.6661551 -4.666062,7.3328439 v 0 l -2.666321,3.666422 -2.66632,3.666422 -2.999612,3.666423 -2.999611,2.999799 -2.99961,2.9998 -3.332902,2.9998 -2.99961,2.333178 -3.332902,2.333177 v 0 l 5.665932,2.333178 5.332642,1.999867 5.665932,1.666554 5.332641,1.333245 5.332642,0.999933 5.332641,0.999934 5.332642,0.666622 5.332641,0.33331 v 0 l 5.665932,-5.666288 4.999351,-5.9996 4.666061,-6.33291 3.66619,-6.332911 2.99961,-6.33291 1.99974,-6.332911 0.99987,-3.3331113 0.3333,-3.333111 0.33329,-2.9997998 z"
       id="path3005"
       inkscape:connector-curvature="0" />
    <path
       style="fill:#002c50;fill-opacity:1;fill-rule:nonzero;stroke:none;stroke-width:1.06666672"
       d="m 150.31383,0 v 0 l -0.33329,4.6663553 -0.66658,4.6663553 -0.99987,4.6663554 -1.33315,4.333044 -1.66645,3.999733 -1.99975,3.999734 -2.33302,3.666421 -2.99962,3.333111 v 0 l -3.99948,4.333045 -4.66607,3.666421 -5.33264,3.333111 -5.66593,2.666489 -5.99922,1.999867 -6.33251,1.333244 -6.999091,0.999933 -7.332381,0.333311 v 0 h -2.666321 v 0 l -4.666061,3.666423 -4.666062,3.666421 -4.999352,3.666422 -4.999351,3.333112 -5.665932,2.999799 -5.665932,2.9998 -5.999221,2.666488 -6.332512,2.333178 v 0 l -5.332642,1.999866 -5.665932,1.666556 -5.665931,1.333245 -5.665932,0.999933 -5.665932,0.999934 -5.665932,0.666622 -5.665931,0.33331 -5.3326416,0.333311 v 0 H 0 v 95.32698 h 15.331345 v -23.9984 0 0 0 0 l 0.33329,-5.33299 0.66658,-4.99965 1.33316,-4.99967 1.666451,-4.66636 2.333031,-4.66636 2.33303,-4.33304 2.999611,-3.99974 3.332901,-3.66642 3.666191,-3.33311 3.999482,-2.9998 4.332771,-2.33318 4.666061,-2.33317 4.666062,-1.66656 4.999351,-1.33324 4.999352,-0.66662 5.332641,-0.33331 v 0 h 4.666062 l 4.332771,0.66662 4.332771,0.99993 4.332771,1.33324 3.999482,1.66656 3.666191,1.99986 3.666191,2.33319 3.666191,2.33317 2.99961,2.9998 2.99961,2.99981 2.66633,3.3331 2.66631,3.33311 1.99974,3.99974 1.99975,3.66642 1.33315,4.33304 1.33316,3.99974 v 0 l -5.66593,1.66655 -4.99935,1.66656 v 0 l -0.99987,-3.33311 -0.99987,-3.33311 -1.33316,-2.99981 -1.66645,-2.9998 -1.99974,-2.99979 -2.33303,-2.66649 -2.333031,-2.33318 -2.333031,-2.33318 -2.666321,-1.99987 -2.999611,-1.99986 -2.99961,-1.66656 -3.332902,-1.33324 -3.332901,-0.99993 -3.3329,-0.66663 -3.666191,-0.66662 H 66.99131 v 0 l -3.999481,0.33331 -3.999481,0.33331 -3.999482,0.99994 -3.666191,1.33325 -3.3329,1.66655 -3.332901,1.99987 -3.332902,2.33317 -2.666321,2.66649 -2.66632,2.66649 -2.333031,2.9998 -1.99974,3.33311 -1.999741,3.66642 -1.33316,3.66642 -0.999871,3.66642 -0.666579,3.99974 -0.333291,3.99973 v 0 0.66662 0 0.33332 0 0.66662 23.33178 h 48.660355 v 0 l -1.666451,5.33297 -1.66645,5.66629 H 26.329918 v 62.9958 h 99.987032 v 0 l -4.99935,-0.33332 -4.99936,-1.33324 -4.66606,-1.33324 -4.33277,-1.99987 -4.33277,-2.33318 -3.66619,-2.66649 -3.999481,-2.9998 -3.332901,-3.33311 -2.999611,-3.33311 -2.66632,-3.99973 -2.333032,-4.33305 -1.999741,-4.33304 -1.66645,-4.33305 -1.33316,-4.99966 -0.666581,-4.66635 -0.333289,-5.33298 v 0 l 0.333289,-5.33299 0.999871,-4.99965 0.99987,-4.99967 1.999741,-4.66636 1.999741,-4.66636 2.666321,-4.33304 2.99961,-3.66643 3.332901,-3.99973 3.666192,-3.33311 3.99948,-2.9998 4.33277,-2.33317 4.33278,-2.33318 4.99935,-1.66655 4.99935,-1.33325 4.99935,-0.66662 5.33264,-0.33332 v 0 l 5.99922,0.33332 5.99922,0.99993 5.66593,1.66655 5.33265,2.33319 4.99935,2.99979 4.66606,3.33311 4.33277,3.99974 3.66619,4.33304 V 0 Z"
       id="path3007"
       inkscape:connector-curvature="0" />
    <path
       style="fill:#002c50;fill-opacity:1;fill-rule:nonzero;stroke:none;stroke-width:1.06666672"
       d="m 136.64894,31.997865 v 0 l 2.66632,-3.333111 1.99975,-3.333111 1.99973,-3.666422 1.66645,-3.999733 1.33317,-4.333044 0.99987,-4.3330445 L 147.9808,4.6663553 148.31409,0 h -31.99585 v 0 l -0.33328,3.3331109 -0.33329,2.9997998 -1.33316,6.6662223 -1.99975,6.332911 -2.9996,6.33291 -3.33291,6.332911 -4.33277,6.33291 -4.999351,5.9996 -5.665932,5.666288 v 0 h 0.666581 v 0 l 6.999092,-0.33331 6.6658,-0.666622 6.33251,-1.666556 5.99922,-1.999867 5.33264,-2.333177 4.99936,-2.9998 4.66606,-3.666422 z"
       id="path3009"
       inkscape:connector-curvature="0" />
    <path
       style="fill:#ffffff;fill-opacity:1;fill-rule:nonzero;stroke:none;stroke-width:1.06666672"
       d="m 86.988717,36.330909 v 0 l -2.666321,-0.333311 -2.666321,-0.666622 v 0 l -1.999741,-0.999934 -1.999741,-1.333244 -1.66645,-1.333244 -1.333161,-1.999867 -0.999869,-1.666556 -0.666581,-1.999865 v -1.999867 l 0.666581,-1.999867 v 0 l 0.333289,-0.999934 0.999871,-1.333243 0.99987,-0.999934 0.99987,-0.666622 1.33316,-0.666622 1.666452,-0.666623 1.66645,-0.333311 h 1.66645 v 0 l 2.333031,0.333311 2.66632,0.666623 v 0 l 2.333032,0.999933 1.999741,1.333245 1.66645,1.333243 1.33316,1.666556 v 0 l 0.99987,1.999867 0.333291,1.999866 v 1.999867 l -0.333291,1.999867 v 0 l -0.66658,1.333244 -0.66658,0.999933 -0.99987,0.999933 -1.333161,0.666622 -1.33316,0.666623 -1.333161,0.666622 -1.66645,0.333311 z"
       id="path3011"
       inkscape:connector-curvature="0" />
    <path
       style="fill:#ffffff;fill-opacity:1;fill-rule:nonzero;stroke:none;stroke-width:1.06666672"
       d="m 35.328751,22.998465 v 0 H 33.99559 L 32.995719,22.331843 31.99585,21.998532 30.99598,20.998598 v 0 l -0.666581,-0.999932 -0.33329,-0.999934 v -1.333244 -0.999934 l 0.33329,-1.333244 0.666581,-1.333244 0.66658,-0.999933 0.99987,-0.999934 v 0 l 1.33316,-0.999933 1.333161,-0.333311 1.33316,-0.333311 1.333161,-0.3333112 v 0 h 0.99987 l 1.33316,0.6666222 0.99987,0.333311 0.666581,0.999933 v 0 l 0.66658,0.999934 0.33329,0.999933 0.33329,1.333244 -0.33329,1.333244 v 0 l -0.33329,0.999934 -0.66658,1.333244 -0.666581,0.999934 -0.99987,0.999932 v 0 l -1.33316,0.999934 -0.99987,0.333311 -1.333161,0.333311 z"
       id="path3013"
       inkscape:connector-curvature="0" />
    <path
       style="fill:#ffffff;fill-opacity:1;fill-rule:nonzero;stroke:none;stroke-width:1.06666672"
       d="m 58.325767,85.66095 v 0 l -2.666321,-0.333311 -2.33303,-0.666621 -1.999741,-0.999934 -1.999741,-1.666555 v 0 l -1.66645,-1.999867 -0.99987,-1.999866 -0.999871,-1.999867 -0.333289,-2.333178 v 0 l 0.333289,-2.333177 0.333291,-2.333178 0.99987,-1.999866 1.333161,-1.666556 v 0 l 1.66645,-1.333244 1.99974,-0.999934 1.999741,-0.666622 2.333031,-0.333311 v 0 l 2.333031,0.333311 2.333031,0.666622 2.33303,1.333245 1.666451,1.666555 v 0 l 1.66645,1.666555 1.333161,2.333178 0.66658,1.999867 0.33329,2.333177 v 2.333178 l -0.666581,1.999867 -0.999869,1.999866 -1.333161,1.999867 v 0 l -1.66645,1.333244 -1.999741,0.999934 -1.999741,0.666621 z"
       id="path3015"
       inkscape:connector-curvature="0" />
    <path
       style="fill:#ffffff;fill-opacity:1;fill-rule:nonzero;stroke:none;stroke-width:1.06666672"
       d="m 36.328621,70.32864 v 0 h -1.66645 l -1.333161,-0.333311 -1.33316,-0.666622 -1.333161,-0.999934 -0.99987,-0.999932 -0.999871,-0.999933 -0.66658,-1.333245 -0.33329,-1.333245 v 0 -1.666555 -1.666555 l 0.666581,-1.666556 0.99987,-1.333244 v 0 l 1.33316,-1.333245 1.333161,-0.999933 1.33316,-0.666622 1.999741,-0.666622 v 0 h 1.66645 v 0 h 1.66645 l 1.333161,0.333311 1.33316,0.666622 1.333161,0.999934 0.99987,0.999932 0.999871,0.999934 0.66658,1.333244 0.333289,1.333245 v 0 1.666555 1.666555 l -0.66658,1.666556 -0.99987,1.333245 -0.99987,1.333243 -1.33316,0.999934 -1.666451,0.666622 -1.99974,0.666622 v 0 z"
       id="path3017"
       inkscape:connector-curvature="0" />
    <path
       style="fill:#30b5ac;fill-opacity:1;fill-rule:nonzero;stroke:none;stroke-width:1.06666672"
       d="m 95.320969,29.997998 v 0 l -0.666581,1.666556 -0.99987,1.333244 -1.66645,0.999933 -1.666451,0.666622 -1.66645,0.333312 h -1.999741 l -2.33303,-0.333312 -1.999741,-0.333311 v 0 l -1.999741,-0.999933 -1.999741,-1.333244 -1.33316,-1.333244 -1.33316,-1.333245 -0.66658,-1.666556 -0.66658,-1.666554 V 24.33171 l 0.333289,-1.666556 v 0 l 0.999871,-1.666556 0.99987,-0.999932 1.333161,-0.999934 1.66645,-0.666622 1.999741,-0.666622 h 1.99974 l 1.999741,0.333311 2.333031,0.666622 v 0 l 1.99974,0.666623 1.666451,1.333243 1.66645,1.333245 0.999871,1.666556 0.99987,1.333244 0.33329,1.666555 v 1.666556 z"
       id="path3019"
       inkscape:connector-curvature="0" />
    <path
       style="fill:#87cedc;fill-opacity:1;fill-rule:nonzero;stroke:none;stroke-width:1.06666672"
       d="m 90.321617,31.331243 v 0 l -0.66658,0.999932 -0.33329,0.666623 -1.666451,0.999933 -1.99974,0.333311 -1.999741,-0.333311 v 0 l -1.666451,-0.999933 -0.99987,-1.666555 -0.66658,-1.666556 v -0.999933 l 0.333291,-0.666623 v 0 l 0.333289,-0.999933 0.666581,-0.666621 1.33316,-0.999934 1.999741,-0.333311 1.999741,0.333311 v 0 l 1.66645,0.999934 1.33316,1.333243 0.33329,1.999867 v 0.666623 z"
       id="path3021"
       inkscape:connector-curvature="0" />
    <path
       style="fill:#f19813;fill-opacity:1;fill-rule:nonzero;stroke:none;stroke-width:1.06666672"
       d="m 39.328231,19.998666 v 0 L 37.328492,21.33191 35.328751,21.665221 33.6623,21.33191 32.66243,20.998598 31.99585,20.331977 v 0 l -0.33329,-0.999933 -0.333291,-0.666623 v -1.999867 l 0.666581,-1.999865 1.66645,-1.666556 v 0 l 1.999741,-1.333245 1.99974,-0.333311 1.999741,0.333311 0.66658,0.333311 0.666581,0.666623 v 0 l 0.66658,0.999933 v 0.666622 1.999866 l -0.66658,1.999867 z"
       id="path3023"
       inkscape:connector-curvature="0" />
    <path
       style="fill:#feca1d;fill-opacity:1;fill-rule:nonzero;stroke:none;stroke-width:1.06666672"
       d="m 38.994942,19.998666 v 0 l -1.333161,0.666621 h -0.99987 -0.99987 L 34.99546,19.998666 v 0 l -0.66658,-0.999934 v -0.999933 l 0.333291,-0.999933 0.66658,-0.999934 v 0 l 0.99987,-0.666622 h 1.33316 0.99987 l 0.66658,0.666622 v 0 l 0.666581,0.999934 v 0.999933 l -0.33329,0.999933 z"
       id="path3025"
       inkscape:connector-curvature="0" />
    <path
       style="fill:#eb5c32;fill-opacity:1;fill-rule:nonzero;stroke:none;stroke-width:1.06666672"
       d="m 64.99157,81.661217 v 0 l -1.666451,1.333245 -1.66645,0.666622 -1.999741,0.666623 h -1.999741 l -1.999741,-0.333312 -1.999739,-0.666622 -1.666452,-0.999933 -1.66645,-1.333245 v 0 l -1.66645,-1.666556 -0.999871,-1.999866 -0.66658,-1.666555 -0.33329,-1.999867 0.33329,-1.999866 0.333291,-1.999867 0.99987,-1.666556 0.999869,-1.666554 v 0 l 1.666452,-1.333245 1.66645,-0.999933 1.999741,-0.333312 h 1.99974 1.999741 l 1.99974,0.666623 1.999741,0.999933 1.666451,1.666556 v 0 l 1.333159,1.666555 0.999871,1.666555 0.666581,1.999867 0.333289,1.999866 v 1.999867 l -0.66658,1.999867 -0.66658,1.666555 z"
       id="path3027"
       inkscape:connector-curvature="0" />
    <path
       style="fill:#9ac31c;fill-opacity:1;fill-rule:nonzero;stroke:none;stroke-width:1.06666672"
       d="m 37.995072,68.995396 v 0 h -1.666451 -1.66645 l -1.333161,-0.333311 -1.33316,-0.666623 -0.99987,-0.999932 -0.999871,-0.999934 -0.66658,-1.333244 -0.33329,-1.333245 v 0 -1.333244 -1.333244 l 0.66658,-1.333245 0.66658,-1.333244 0.99987,-0.999934 1.333161,-0.999933 1.33316,-0.666621 1.333161,-0.333312 v 0 h 1.66645 1.66645 l 1.333161,0.333312 1.33316,0.666621 0.999871,0.999933 0.99987,0.999934 0.66658,1.333244 0.33329,1.333245 v 0 1.333244 1.333244 l -0.66658,1.333245 -0.66658,1.333244 -0.99987,0.999934 -1.333161,0.999932 -1.333161,0.666623 z"
       id="path3029"
       inkscape:connector-curvature="0" />
    <path
       style="fill:#d8da00;fill-opacity:1;fill-rule:nonzero;stroke:none;stroke-width:1.06666672"
       d="m 38.661651,67.328841 v 0 h -0.99987 l -1.33316,-0.666622 -0.66658,-0.666623 -0.33329,-0.999933 v 0 -0.999933 l 0.33329,-0.999934 0.99987,-0.666622 0.99987,-0.333311 v 0 h 1.333161 l 0.99987,0.333311 0.66658,0.666622 0.66658,0.999934 v 0 l -0.333289,0.999933 -0.333291,0.999933 -0.99987,0.666623 z"
       id="path3031"
       inkscape:connector-curvature="0" />
    <path
       style="fill:#f18954;fill-opacity:1;fill-rule:nonzero;stroke:none;stroke-width:1.06666672"
       d="m 59.325638,72.661818 v 0 h -1.33316 l -0.999871,-0.666622 -0.99987,-0.999933 -0.333291,-1.333245 v 0 -1.333245 l 0.333291,-0.999932 0.99987,-0.999933 1.33316,-0.333312 v 0 h 1.333161 l 0.99987,0.333312 0.999871,0.999933 0.333289,1.333244 v 0 1.333244 l -0.333289,1.333245 -0.999871,0.666622 z"
       id="path3033"
       inkscape:connector-curvature="0" />
    <path
       style="fill:#002c50;fill-opacity:1;fill-rule:nonzero;stroke:none;stroke-width:1.06666672"
       d="m 0.3332901,271.98186 h 8.9988327 v 2.33317 H 3.6661911 v 3.99973 h 5.3326416 v 2.66649 H 3.6661911 v 7.33284 h -3.332901 z"
       id="path3035"
       inkscape:connector-curvature="0" />
    <path
       style="fill:#002c50;fill-opacity:1;fill-rule:nonzero;stroke:none;stroke-width:1.06666672"
       d="m 16.664505,271.98186 h 3.666192 l 6.332512,16.33223 h -3.666192 l -1.33316,-3.99973 h -6.665803 l -1.33316,3.99973 h -3.332901 z m 1.666451,3.33311 v 0 l -2.333031,6.66621 h 4.666061 z"
       id="path3037"
       inkscape:connector-curvature="0" />
    <path
       style="fill:#002c50;fill-opacity:1;fill-rule:nonzero;stroke:none;stroke-width:1.06666672"
       d="m 40.661392,287.98078 v 0 l -1.66645,0.33331 -1.999741,0.33331 v 0 l -1.999741,-0.33331 -1.66645,-0.33331 -1.33316,-0.66661 -1.333161,-0.99994 -1.33316,-0.99994 -0.666581,-1.33324 -0.333289,-1.66655 -0.333291,-1.99988 v 0 l 0.333291,-1.99986 0.333289,-1.66656 0.666581,-1.66655 0.99987,-0.99993 1.333161,-0.99994 1.66645,-0.66662 1.66645,-0.66662 h 1.999741 v 0 h 1.66645 l 1.999741,0.66662 -0.99987,2.66649 v 0 l -1.33316,-0.66662 h -1.333161 v 0 h -1.33316 l -0.99987,0.33331 -0.999871,0.66663 -0.666581,0.66661 -0.666579,0.66662 -0.66658,0.99994 v 1.33325 l -0.333291,0.99992 v 0 l 0.333291,2.33319 0.66658,0.99993 0.666579,0.99993 0.666581,0.66662 0.999871,0.33331 0.99987,0.33332 1.33316,0.33331 v 0 l 1.66645,-0.33331 1.333161,-0.33332 z"
       id="path3039"
       inkscape:connector-curvature="0" />
    <path
       style="fill:#002c50;fill-opacity:1;fill-rule:nonzero;stroke:none;stroke-width:1.06666672"
       d="m 42.994423,271.98186 h 3.332901 v 9.3327 0 1.99987 l 0.66658,1.33324 0.999871,0.99994 1.66645,0.33331 v 0 l 1.66645,-0.33331 0.999871,-0.99994 0.66658,-1.33324 v -1.99987 -9.3327 h 3.332901 v 10.33264 0 1.66655 l -0.33329,0.99993 -0.66658,1.33325 -0.66658,0.66662 -0.99987,0.66663 -1.333161,0.3333 -1.33316,0.33331 -1.333161,0.33331 v 0 l -1.66645,-0.33331 -0.999871,-0.33331 -1.333161,-0.3333 -0.999869,-0.66663 -0.666581,-0.66662 -0.66658,-1.33325 -0.33329,-0.99993 v -1.66655 z"
       id="path3041"
       inkscape:connector-curvature="0" />
    <path
       style="fill:#002c50;fill-opacity:1;fill-rule:nonzero;stroke:none;stroke-width:1.06666672"
       d="m 59.992219,271.98186 h 3.3329 v 13.66575 h 6.332512 v 2.66648 h -9.665412 z"
       id="path3043"
       inkscape:connector-curvature="0" />
    <path
       style="fill:#002c50;fill-opacity:1;fill-rule:nonzero;stroke:none;stroke-width:1.06666672"
       d="m 74.656982,274.31503 h -4.66606 v -2.33317 h 12.665023 v 2.33317 h -4.666061 v 13.99906 h -3.332902 z"
       id="path3045"
       inkscape:connector-curvature="0" />
    <path
       style="fill:#002c50;fill-opacity:1;fill-rule:nonzero;stroke:none;stroke-width:1.06666672"
       d="m 84.655685,271.98186 h 9.665414 v 2.33317 h -6.332512 v 3.99973 h 5.665931 v 2.66649 h -5.665931 v 4.66636 h 6.332512 v 2.66648 h -9.665414 z m 4.666062,-4.66636 h 2.999611 l -2.999611,3.66642 h -1.999741 z"
       id="path3047"
       inkscape:connector-curvature="0" />
    <path
       style="fill:#002c50;fill-opacity:1;fill-rule:nonzero;stroke:none;stroke-width:1.06666672"
       d="m 103.98651,271.98186 h 4.66607 v 0 h 1.66644 l 1.99974,0.3333 1.33317,0.33331 1.66645,0.99994 0.99986,0.99993 0.99987,1.33324 0.33329,1.99987 0.33329,1.99986 v 0 l -0.33329,2.33319 -0.33329,1.66655 -0.99987,1.33324 -0.99986,1.33325 -1.66645,0.66663 -1.33317,0.66661 h -1.99974 l -1.66644,0.33331 h -4.66607 z m 3.3329,13.66575 h 1.99975 v 0 l 1.99973,-0.33332 0.66658,-0.66662 0.99987,-0.33331 0.66659,-0.99993 0.33329,-0.99993 0.33329,-0.99994 0.33329,-1.33325 v 0 l -0.33329,-1.33324 -0.33329,-0.99993 -0.33329,-0.99994 -0.66659,-0.66662 -0.99987,-0.66661 -0.66658,-0.33332 -1.99973,-0.66662 h -1.99975 z"
       id="path3049"
       inkscape:connector-curvature="0" />
    <path
       style="fill:#002c50;fill-opacity:1;fill-rule:nonzero;stroke:none;stroke-width:1.06666672"
       d="m 120.98431,271.98186 h 9.66541 v 2.33317 h -6.33251 v 3.99973 h 5.66593 v 2.66649 h -5.66593 v 4.66636 h 6.33251 v 2.66648 h -9.66541 z"
       id="path3051"
       inkscape:connector-curvature="0" />
    <path
       style="fill:#002c50;fill-opacity:1;fill-rule:nonzero;stroke:none;stroke-width:1.06666672"
       d="m 141.98158,274.98165 v 0 l -1.33315,-0.66662 h -1.33317 v 0 h -0.66658 l -0.99987,0.33331 -0.66658,0.66663 v 0.99992 0 l 0.33329,0.99994 0.66658,0.66662 2.33304,0.99994 1.33315,0.66662 1.33316,0.99993 0.66658,0.99993 0.33329,1.99987 v 0 0.99993 l -0.33329,1.33325 -0.66658,0.66662 -0.66658,0.66663 -0.99986,0.66661 -0.99987,0.33331 -2.33304,0.33331 v 0 l -2.33303,-0.33331 -1.99974,-0.33331 0.99988,-2.9998 v 0 l 1.33315,0.66663 1.66645,0.33331 v 0 l 0.99987,-0.33331 0.99987,-0.33332 0.66659,-0.66662 0.33329,-0.99993 v 0 l -0.33329,-0.66662 -0.99988,-0.99994 -2.33303,-0.99993 -1.33316,-0.66663 -0.99986,-0.66661 -0.99988,-1.33325 -0.33329,-1.66656 v 0 l 0.33329,-1.33323 0.33329,-0.99994 0.66659,-0.99994 0.66657,-0.66662 1.66645,-0.66661 1.99974,-0.33332 v 0 h 2.33304 l 1.66644,0.66662 z"
       id="path3053"
       inkscape:connector-curvature="0" />
    <path
       style="fill:#002c50;fill-opacity:1;fill-rule:nonzero;stroke:none;stroke-width:1.06666672"
       d="m 161.6457,274.98165 v 0 l -1.33317,-0.66662 h -1.33315 v 0 h -0.99987 l -0.66658,0.33331 -0.66658,0.66663 -0.33329,0.99992 v 0 l 0.33329,0.99994 0.66658,0.66662 2.66632,0.99994 1.33316,0.66662 0.99987,0.99993 0.99987,0.99993 0.33329,1.99987 v 0 l -0.33329,0.99993 -0.33329,1.33325 -0.66658,0.66662 -0.66658,0.66663 -0.99988,0.66661 -0.99986,0.33331 -2.33303,0.33331 v 0 l -1.99975,-0.33331 -1.99973,-0.33331 0.99986,-2.9998 v 0 l 1.33316,0.66663 1.66646,0.33331 v 0 l 0.99987,-0.33331 0.66658,-0.33332 0.66658,-0.66662 0.33329,-0.99993 v 0 l -0.33329,-0.66662 -0.66658,-0.99994 -2.33303,-0.99993 -1.33317,-0.66663 -1.33316,-0.66661 -0.66657,-1.33325 -0.33329,-1.66656 v 0 -1.33323 l 0.33329,-0.99994 0.66657,-0.99994 0.66658,-0.66662 1.99975,-0.66661 1.99974,-0.33332 v 0 h 1.99973 l 1.99975,0.66662 z"
       id="path3055"
       inkscape:connector-curvature="0" />
    <path
       style="fill:#002c50;fill-opacity:1;fill-rule:nonzero;stroke:none;stroke-width:1.06666672"
       d="m 178.31021,287.98078 v 0 l -1.66646,0.33331 -1.99974,0.33331 v 0 l -1.99973,-0.33331 -1.66646,-0.33331 -1.66645,-0.66661 -0.99987,-0.99994 -1.33316,-0.99994 -0.66657,-1.33324 -0.3333,-1.66655 -0.33329,-1.99988 v 0 l 0.33329,-1.99986 0.3333,-1.66656 0.66657,-1.66655 0.99987,-0.99993 1.33316,-0.99994 1.66645,-0.66662 1.66646,-0.66662 h 1.99973 v 0 h 1.66645 l 1.99975,0.66662 -0.99987,2.66649 v 0 l -1.33317,-0.66662 h -1.33316 v 0 h -1.33316 l -0.99986,0.33331 -0.99988,0.66663 -0.66658,0.66661 -0.66658,0.66662 -0.66658,0.99994 v 1.33325 l -0.33329,0.99992 v 0 l 0.33329,2.33319 0.66658,0.99993 0.66658,0.99993 0.66658,0.66662 0.99988,0.33331 0.99986,0.33332 1.33316,0.33331 v 0 l 1.66645,-0.33331 1.33317,-0.33332 z"
       id="path3057"
       inkscape:connector-curvature="0" />
    <path
       style="fill:#002c50;fill-opacity:1;fill-rule:nonzero;stroke:none;stroke-width:1.06666672"
       d="m 187.30903,271.98186 h 9.66542 v 2.33317 h -6.33251 v 3.99973 h 5.66593 v 2.66649 h -5.66593 v 4.66636 h 6.33251 v 2.66648 h -9.66542 z"
       id="path3059"
       inkscape:connector-curvature="0" />
    <path
       style="fill:#002c50;fill-opacity:1;fill-rule:nonzero;stroke:none;stroke-width:1.06666672"
       d="m 199.97406,271.98186 h 3.99949 l 6.33251,11.99919 v 0 -11.99919 h 2.9996 v 16.33223 h -3.99947 l -5.99922,-12.33251 v 0 12.33251 h -3.33291 z"
       id="path3061"
       inkscape:connector-curvature="0" />
    <path
       style="fill:#002c50;fill-opacity:1;fill-rule:nonzero;stroke:none;stroke-width:1.06666672"
       d="m 228.9703,287.98078 v 0 l -1.99974,0.33331 -1.66645,0.33331 v 0 l -1.99975,-0.33331 -1.66644,-0.33331 -1.66645,-0.66661 -1.33317,-0.99994 -0.99987,-0.99994 -0.66658,-1.33324 -0.66657,-1.66655 v -1.99988 0 -1.99986 l 0.66657,-1.66656 0.66658,-1.66655 0.99987,-0.99993 1.33317,-0.99994 1.66645,-0.66662 1.66644,-0.66662 h 1.99975 v 0 h 1.66645 l 1.99974,0.66662 -0.99987,2.66649 v 0 l -1.33316,-0.66662 h -1.33316 v 0 h -1.33317 l -0.99986,0.33331 -0.99987,0.66663 -0.66658,0.66661 -0.66658,0.66662 -0.66658,0.99994 -0.33329,1.33325 v 0.99992 0 l 0.33329,2.33319 0.66658,0.99993 0.66658,0.99993 0.66658,0.66662 0.99987,0.33331 0.99986,0.33332 1.33317,0.33331 v 0 l 1.66645,-0.33331 0.99987,-0.33332 z"
       id="path3063"
       inkscape:connector-curvature="0" />
    <path
       style="fill:#002c50;fill-opacity:1;fill-rule:nonzero;stroke:none;stroke-width:1.06666672"
       d="m 231.30333,271.98186 h 9.66542 v 2.33317 h -6.33252 v 3.99973 h 5.66594 v 2.66649 h -5.66594 v 4.66636 h 6.33252 v 2.66648 h -9.66542 z"
       id="path3065"
       inkscape:connector-curvature="0" />
    <path
       style="fill:#002c50;fill-opacity:1;fill-rule:nonzero;stroke:none;stroke-width:1.06666672"
       d="m 252.30061,274.98165 v 0 l -0.99987,-0.66662 h -1.66646 v 0 h -0.66658 l -0.99986,0.33331 -0.66658,0.66663 v 0.99992 0 l 0.33329,0.99994 0.66657,0.66662 2.33303,0.99994 1.33317,0.66662 1.33316,0.99993 0.66658,0.99993 0.33329,1.99987 v 0 0.99993 l -0.33329,1.33325 -0.66658,0.66662 -0.66658,0.66663 -0.99987,0.66661 -0.99988,0.33331 -2.33303,0.33331 v 0 l -2.33302,-0.33331 -1.99975,-0.33331 0.99987,-2.9998 v 0 l 1.66646,0.66663 1.33316,0.33331 v 0 l 0.99986,-0.33331 0.99987,-0.33332 0.66658,-0.66662 0.3333,-0.99993 v 0 l -0.3333,-0.66662 -0.66658,-0.99994 -2.66631,-0.99993 -1.33316,-0.66663 -0.99988,-0.66661 -0.99987,-1.33325 v -1.66656 0 -1.33323 l 0.33329,-0.99994 0.66658,-0.99994 0.66659,-0.66662 1.66645,-0.66661 2.33302,-0.33332 v 0 h 1.99975 l 1.66645,0.66662 z"
       id="path3067"
       inkscape:connector-curvature="0" />
    <path
       style="fill:#878787;fill-opacity:1;fill-rule:nonzero;stroke:none;stroke-width:1.06666672"
       d="m 0,296.98018 h 7.9989625 l 3.9994815,11.66589 v 0 l 4.332771,-11.66589 h 7.665672 v 17.33218 h -4.999351 l 0.33329,-13.33245 v 0 l -4.999352,13.33245 H 9.6654129 L 4.9993515,300.97991 v 0 13.33245 H 0 Z"
       id="path3069"
       inkscape:connector-curvature="0" />
    <path
       style="fill:#878787;fill-opacity:1;fill-rule:nonzero;stroke:none;stroke-width:1.06666672"
       d="m 42.661133,296.64687 v 0 l 2.33303,0.33331 1.999741,0.33331 1.666451,0.99994 1.33316,0.99994 0.999871,1.33323 0.66658,1.33325 0.66658,1.66655 v 1.99987 0 1.99986 l -0.66658,1.66656 -0.66658,1.66656 -0.999871,1.33324 -1.33316,0.99994 -1.666451,0.66662 -1.999741,0.66662 h -2.33303 v 0 h -1.999741 l -1.999741,-0.66662 -1.66645,-0.66662 -1.33316,-0.99994 -0.99987,-1.33324 -0.999871,-1.66656 -0.33329,-1.66656 v -1.99986 0 -1.99987 l 0.33329,-1.66655 0.999871,-1.33325 0.99987,-1.33323 1.33316,-0.99994 1.66645,-0.99994 1.999741,-0.33331 z m 0,14.66568 v 0 l 1.33316,-0.3333 0.666581,-0.33331 0.999869,-0.33331 0.333291,-0.66662 0.99987,-1.99988 v -1.99986 0 -1.99987 l -0.99987,-1.66655 -0.333291,-0.66662 -0.999869,-0.66663 -0.666581,-0.33331 h -1.33316 v 0 h -0.99987 l -0.999871,0.33331 -0.66658,0.66663 -0.666581,0.66662 -0.66658,1.66655 -0.333289,1.99987 v 0 l 0.333289,1.99986 0.66658,1.99988 0.666581,0.66662 0.66658,0.33331 0.999871,0.33331 z"
       id="path3071"
       inkscape:connector-curvature="0" />
    <path
       style="fill:#878787;fill-opacity:1;fill-rule:nonzero;stroke:none;stroke-width:1.06666672"
       d="m 61.658669,296.98018 h 6.665801 l 6.332512,11.9992 v 0 -11.9992 h 4.666062 v 17.33218 H 72.990532 L 66.32473,302.64647 v 0 11.66589 h -4.666061 z"
       id="path3073"
       inkscape:connector-curvature="0" />
    <path
       style="fill:#878787;fill-opacity:1;fill-rule:nonzero;stroke:none;stroke-width:1.06666672"
       d="m 92.654649,300.6466 h -4.666062 v -3.66642 h 14.331473 v 3.66642 H 97.654 v 13.66576 h -4.999351 z"
       id="path3075"
       inkscape:connector-curvature="0" />
    <path
       style="fill:#878787;fill-opacity:1;fill-rule:nonzero;stroke:none;stroke-width:1.06666672"
       d="m 110.65231,296.98018 h 5.99922 v 0 l 3.99949,0.33331 1.33316,0.66663 1.33315,0.66662 0.99988,0.66663 0.66658,0.99992 0.33329,0.99994 v 1.33324 0 1.33324 l -0.33329,0.99994 -0.66658,0.99993 -0.99988,0.99994 -0.99986,0.66661 -1.33316,0.33332 -1.66645,0.33331 h -1.66646 -1.99973 v 5.9996 h -4.99936 z m 4.99936,7.99947 h 1.33315 v 0 h 1.33316 l 0.99988,-0.33331 0.66658,-0.66663 0.33329,-1.33324 v 0 l -0.33329,-0.99993 -0.66658,-0.66663 -0.99988,-0.33331 -1.33316,-0.33331 h -1.33315 z"
       id="path3077"
       inkscape:connector-curvature="0" />
    <path
       style="fill:#878787;fill-opacity:1;fill-rule:nonzero;stroke:none;stroke-width:1.06666672"
       d="m 133.98262,296.98018 h 13.33161 v 3.33311 h -8.33226 v 3.66642 h 7.99897 v 3.33311 h -7.99897 v 3.66643 h 8.66554 v 3.33311 h -13.66489 z"
       id="path3079"
       inkscape:connector-curvature="0" />
    <path
       style="fill:#878787;fill-opacity:1;fill-rule:nonzero;stroke:none;stroke-width:1.06666672"
       d="m 157.31293,296.98018 h 4.99935 v 13.99907 h 7.99896 v 3.33311 h -12.99831 z"
       id="path3081"
       inkscape:connector-curvature="0" />
    <path
       style="fill:#878787;fill-opacity:1;fill-rule:nonzero;stroke:none;stroke-width:1.06666672"
       d="m 178.6435,296.98018 h 5.33264 v 13.99907 h 7.66566 v 3.33311 h -12.9983 z"
       id="path3083"
       inkscape:connector-curvature="0" />
    <path
       style="fill:#878787;fill-opacity:1;fill-rule:nonzero;stroke:none;stroke-width:1.06666672"
       d="m 200.64064,296.98018 h 4.99935 v 17.33218 h -4.99935 z"
       id="path3085"
       inkscape:connector-curvature="0" />
    <path
       style="fill:#878787;fill-opacity:1;fill-rule:nonzero;stroke:none;stroke-width:1.06666672"
       d="m 215.6387,296.98018 h 13.66488 v 3.33311 h -8.33224 v 3.66642 h 7.66567 v 3.33311 h -7.66567 v 3.66643 h 8.66553 v 3.33311 H 215.6387 Z"
       id="path3087"
       inkscape:connector-curvature="0" />
    <path
       style="fill:#878787;fill-opacity:1;fill-rule:nonzero;stroke:none;stroke-width:1.06666672"
       d="m 238.969,296.98018 h 8.99884 v 0 l 2.33302,0.33331 1.99975,0.99994 0.66658,0.33331 0.66658,0.99993 0.33329,0.66662 0.33329,0.99994 v 0 l -0.33329,1.66656 -0.66658,1.33323 -1.33316,0.99994 -1.66646,0.66662 v 0 0 l 0.99988,0.33332 0.66658,0.66662 1.33316,2.66649 1.66644,4.66635 h -5.33264 l -0.99987,-2.99981 v 0 l -0.99986,-2.33317 -0.66658,-1.33325 v 0 h -1.99975 -0.99987 v 6.66623 H 238.969 Z m 4.99935,7.33284 h 1.33316 v 0 h 1.33317 l 0.99987,-0.33331 0.99986,-0.66661 0.33329,-0.33331 v -0.66663 0 l -0.33329,-0.99993 -0.66657,-0.66663 -1.33316,-0.33331 h -1.33317 -1.33316 z"
       id="path3089"
       inkscape:connector-curvature="0" />
    <path
       style="fill:#002c50;fill-opacity:1;fill-rule:nonzero;stroke:none;stroke-width:1.06666672"
       d="m 184.30943,288.31409 h -2.99962 v -16.33223 h 2.99962 z"
       id="path3091"
       inkscape:connector-curvature="0" />
  </g>
</svg>
